%YAML 1.1
%TAG !u! tag:unity3d.com,2011:
--- !u!1045 &1
EditorBuildSettings:
  m_ObjectHideFlags: 0
  serializedVersion: 2
  m_Scenes:
  - enabled: 0
    path: Assets/Scenes/Menu.unity
    guid: 6446cfb7cce82af4d8356f7e6e6badfb
  - enabled: 0
    path: Assets/Scenes/SampleScene.unity
    guid: 2cda990e2423bbf4892e6590ba056729
  - enabled: 1
    path: Assets/Scenes/Profile.unity
    guid: 033a8e243471c9a4da05f098be1a8e51
  - enabled: 1
    path: Assets/Scenes/Game.unity
    guid: afd2db6d218e8a64cbf531810f124cfa
  m_configObjects: {}
